0
YES
1
508
508
2
1
641
NO
0
NO
1
NO
1
722
2
2
2
NO
NO
NO
1
505
1
NO
NO
505
NO
1
505
0
YES
YES
71
3
3
NO
4
5
125
5
125
NO
NO
5
267
267
3
147
997
5
5
700
NO
8
NO
924
924
970
NO
970
NO
970
NO
970
5
NO
NO
NO
2
929
0
0
2
NO
414
YES
YES
YES
0
1
782
2
NO
505
505
3
3
505
505
1
NO
1
326
91
NO
YES
1
1
881
0
YES
0
YES
NO
NO
0
0
YES
0
YES
YES
0
168
239
NO
NO
3
2
2
894
894
194
194
1
YES
672
NO
660
NO
94
NO
NO
NO
94
3
94
94
94
NO
1
NO
2
NO
357
357
357
357
NO
3
4
4
3
244
NO
NO
NO
43
NO
3
NO
3
3
1
0
YES
0
594
YES
NO
315
NO
YES
0
YES
YES
1
995
995
NO
0
0
YES
0
0
YES
0
NO
596
1
YES
0
296
296
YES
1
NO
NO
591
846
NO
2
2
NO
2
400
NO
2
NO
400
2
NO
NO
NO
NO
400
4
4
NO
400
NO
NO
666
666
666
666
NO
5
666
6
666
NO
6
NO
5
5
NO
544
NO
544
544
544
NO
6
NO
NO
8
544
NO
544
544
NO
149
NO
10
NO
NO
10
NO
NO
10
688
10
NO
10
706
NO
706
606
NO
9
606
NO
NO
8
8
378
378
9
378
NO
NO
NO
10
NO
10
9
634
5
NO
NO
3
NO
3
825
417
NO
NO
NO
1
1
602
970
YES
1
NO
YES
NO
2
584
584
4
NO
4
NO
584
NO
829
829
829
NO
829
4
4
4
4
4
829
NO
NO
NO
NO
NO
3
3
3
567
NO
918
6
NO
NO
918
321
NO
NO
321
5
649
649
6
128
NO
NO
NO
9
876
8
7
7
NO
649
649
NO
8
649
8
NO
649
NO
649
NO
649
9
9
NO
NO
NO
NO
9
8
8
8
681
10
NO
7
NO
NO
688
293
712
712
5
5
319
5
NO
319
6
NO
NO
319
NO
319
8
NO
7
NO
7
6
963
6
NO
NO
7
NO
963
7
6
6
370
370
NO
454
5
NO
NO
NO
3
970
NO
NO
NO
1
