NO
NO
NO
2
3
4
NO
5
NO
NO
NO
9
NO
11
NO
NO
NO
16
16
16
NO
16
18
NO
19
19
NO
20
21
NO
NO
NO
NO
NO
NO
25
NO
25
25
NO
NO
NO
NO
25
25
NO
NO
NO
26
26
26
26
NO
26
NO
28
NO
28
NO
NO
NO
NO
30
NO
NO
NO
NO
NO
38
NO
39
40
NO
NO
NO
NO
NO
NO
NO
NO
45
NO
NO
49
49
NO
49
49
49
NO
50
NO
NO
NO
NO
51
NO
52
NO
NO
52
52
53
NO
57
57
57
NO
59
NO
NO
NO
61
NO
NO
NO
62
NO
NO
62
NO
NO
NO
NO
NO
NO
NO
65
65
NO
NO
65
NO
65
NO
67
NO
NO
NO
NO
68
NO
69
69
69
69
NO
69
NO
70
NO
71
71
73
NO
74
NO
74
NO
74
74
NO
NO
NO
75
75
75
NO
76
78
NO
NO
79
NO
NO
80
82
NO
NO
83
85
NO
85
85
NO
NO
89
89
NO
NO
91
NO
91
NO
91
91
91
94
NO
94
NO
NO
95
NO
NO
NO
NO
NO
NO
NO
NO
NO
NO
99
NO
NO
99
NO
NO
NO
NO
NO
103
103
NO
NO
104
NO
105
NO
105
107
NO
107
NO
108
108
NO
110
110
114
114
NO
NO
NO
114
NO
114
114
114
NO
NO
115
NO
NO
NO
116
116
NO
NO
NO
116
118
NO
NO
120
NO
120
NO
121
121
NO
NO
NO
122
122
NO
123
NO
NO
125
NO
NO
NO
NO
128
129
129
129
NO
NO
129
129
129
NO
NO
NO
NO
NO
NO
132
NO
132
NO
NO
NO
NO
NO
NO
137
137
138
NO
139
142
NO
142
NO
NO
NO
143
NO
NO
NO
NO
NO
144
NO
NO
147
NO
148
NO
NO
148
149
149
149
149
NO
NO
149
149
NO
150
152
NO
153
NO
NO
NO
154
NO
154
154
154
NO
154
NO
NO
154
NO
154
NO
155
155
NO
NO
157
NO
NO
160
160
NO
160
NO
NO
160
160
161
161
NO
162
162
NO
164
NO
164
NO
164
NO
165
NO
167
NO
NO
NO
NO
168
168
168
NO
169
169
169
169
169
NO
NO
171
NO
173
174
176
179
180
NO
180
180
NO
NO
NO
183
NO
NO
186
187
NO
NO
191
191
NO
192
192
192
192
192
NO
NO
193
193
NO
NO
NO
NO
193
195
NO
196
NO
197
NO
198
200
200
NO
201
201
201
NO
202
202
202
205
NO
NO
205
208
208
208
NO
